%YAML 1.1
%TAG !u! tag:unity3d.com,2011:
--- !u!21 &2100000
Material:
  serializedVersion: 6
  m_ObjectHideFlags: 0
  m_PrefabParentObject: {fileID: 0}
  m_PrefabInternal: {fileID: 0}
  m_Name: Kibble1Tier1
  m_Shader: {fileID: 4800000, guid: 76374158b4c4e5744b394e9290aae693, type: 3}
  m_ShaderKeywords: _COLOR_ON _TEX_ON _VCOLOR_ON
  m_LightmapFlags: 5
  m_CustomRenderQueue: -1
  stringTagMap: {}
  m_SavedProperties:
    serializedVersion: 2
    m_TexEnvs:
    - first:
        name: _MainTex
      second:
        m_Texture: {fileID: 2800000, guid: 320ea8e69e815e749a699878467bed20, type: 3}
        m_Scale: {x: 1, y: 1}
        m_Offset: {x: 0, y: 0}
    - first:
        name: _ToonShade
      second:
        m_Texture: {fileID: 2800000, guid: 6025d0a2309e93e43bfcf54a7ad26dab, type: 3}
        m_Scale: {x: 1, y: 1}
        m_Offset: {x: 0, y: 0}
    m_Floats:
    - first:
        name: _Brightness
      second: 1
    - first:
        name: _DetailTex
      second: 1
    - first:
        name: _Outline
      second: 5
    - first:
        name: _TintColor
      second: 1
    - first:
        name: _VertexColor
      second: 1
    m_Colors:
    - first:
        name: _Color
      second: {r: 1, g: 1, b: 1, a: 1}
    - first:
        name: _OutlineColor
      second: {r: 0, g: 0, b: 0, a: 1}
