%YAML 1.1
%TAG !u! tag:unity3d.com,2011:
--- !u!74 &7400000
AnimationClip:
  m_ObjectHideFlags: 0
  m_PrefabParentObject: {fileID: 0}
  m_PrefabInternal: {fileID: 0}
  m_Name: TRexRightLeg
  serializedVersion: 6
  m_Legacy: 0
  m_Compressed: 0
  m_UseHighQualityCurve: 1
  m_RotationCurves: []
  m_CompressedRotationCurves: []
  m_EulerCurves:
  - curve:
      serializedVersion: 2
      m_Curve:
      - time: 0
        value: {x: 0, y: 0, z: 0}
        inSlope: {x: 0, y: 27.944002, z: 0}
        outSlope: {x: 0, y: 27.944002, z: 0}
        tangentMode: 0
      - time: 0.21428572
        value: {x: 0, y: 5.9880004, z: 0}
        inSlope: {x: 0, y: 0, z: 0}
        outSlope: {x: 0, y: 0, z: 0}
        tangentMode: 0
      - time: 0.42857143
        value: {x: 0, y: 0, z: 0}
        inSlope: {x: 0, y: -13.972001, z: 0}
        outSlope: {x: -0, y: -0, z: -0}
        tangentMode: 0
      - time: 0.85714287
        value: {x: 0, y: 0, z: 0}
        inSlope: {x: 0, y: 0, z: 0}
        outSlope: {x: 0, y: 0, z: 0}
        tangentMode: 0
      m_PreInfinity: 2
      m_PostInfinity: 2
      m_RotationOrder: 4
    path: 
  m_PositionCurves:
  - curve:
      serializedVersion: 2
      m_Curve:
      - time: 0
        value: {x: 0.1754854, y: 0.009493244, z: -0.4349306}
        inSlope: {x: -0.0000001390775, y: -0.0023106902, z: 0.34967157}
        outSlope: {x: -0.0000001390775, y: -0.0023106902, z: 0.34967157}
        tangentMode: 0
      - time: 0.21428572
        value: {x: 0.17548537, y: 0.008998096, z: -0.36000097}
        inSlope: {x: 0, y: 0, z: 0}
        outSlope: {x: 0, y: 0, z: 0}
        tangentMode: 0
      - time: 0.42857143
        value: {x: 0.1754854, y: 0.009493244, z: -0.4349306}
        inSlope: {x: 0.00000006953875, y: 0.0011553451, z: -0.17483579}
        outSlope: {x: -0, y: -0, z: -0}
        tangentMode: 0
      - time: 0.85714287
        value: {x: 0.1754854, y: 0.009493244, z: -0.4349306}
        inSlope: {x: 0, y: 0, z: 0}
        outSlope: {x: 0, y: 0, z: 0}
        tangentMode: 0
      m_PreInfinity: 2
      m_PostInfinity: 2
      m_RotationOrder: 4
    path: 
  m_ScaleCurves: []
  m_FloatCurves: []
  m_PPtrCurves: []
  m_SampleRate: 70
  m_WrapMode: 0
  m_Bounds:
    m_Center: {x: 0, y: 0, z: 0}
    m_Extent: {x: 0, y: 0, z: 0}
  m_ClipBindingConstant:
    genericBindings:
    - path: 0
      attribute: 1
      script: {fileID: 0}
      classID: 4
      customType: 0
      isPPtrCurve: 0
    - path: 0
      attribute: 4
      script: {fileID: 0}
      classID: 4
      customType: 14
      isPPtrCurve: 0
    pptrCurveMapping: []
  m_AnimationClipSettings:
    serializedVersion: 2
    m_AdditiveReferencePoseClip: {fileID: 0}
    m_AdditiveReferencePoseTime: 0
    m_StartTime: 0
    m_StopTime: 0.85714287
    m_OrientationOffsetY: 0
    m_Level: 0
    m_CycleOffset: 0
    m_HasAdditiveReferencePose: 0
    m_LoopTime: 1
    m_LoopBlend: 0
    m_LoopBlendOrientation: 0
    m_LoopBlendPositionY: 0
    m_LoopBlendPositionXZ: 0
    m_KeepOriginalOrientation: 0
    m_KeepOriginalPositionY: 1
    m_KeepOriginalPositionXZ: 0
    m_HeightFromFeet: 0
    m_Mirror: 0
  m_EditorCurves:
  - curve:
      serializedVersion: 2
      m_Curve:
      - time: 0
        value: 0.1754854
        inSlope: -0.0000001390775
        outSlope: -0.0000001390775
        tangentMode: 10
      - time: 0.21428572
        value: 0.17548537
        inSlope: 0
        outSlope: 0
        tangentMode: 10
      - time: 0.42857143
        value: 0.1754854
        inSlope: 0.00000006953875
        outSlope: -0
        tangentMode: 17
      - time: 0.85714287
        value: 0.1754854
        inSlope: 0
        outSlope: 0
        tangentMode: 5
      m_PreInfinity: 2
      m_PostInfinity: 2
      m_RotationOrder: 4
    attribute: m_LocalPosition.x
    path: 
    classID: 4
    script: {fileID: 0}
  - curve:
      serializedVersion: 2
      m_Curve:
      - time: 0
        value: 0.009493244
        inSlope: -0.0023106902
        outSlope: -0.0023106902
        tangentMode: 10
      - time: 0.21428572
        value: 0.008998096
        inSlope: 0
        outSlope: 0
        tangentMode: 10
      - time: 0.42857143
        value: 0.009493244
        inSlope: 0.0011553451
        outSlope: -0
        tangentMode: 17
      - time: 0.85714287
        value: 0.009493244
        inSlope: 0
        outSlope: 0
        tangentMode: 5
      m_PreInfinity: 2
      m_PostInfinity: 2
      m_RotationOrder: 4
    attribute: m_LocalPosition.y
    path: 
    classID: 4
    script: {fileID: 0}
  - curve:
      serializedVersion: 2
      m_Curve:
      - time: 0
        value: -0.4349306
        inSlope: 0.34967157
        outSlope: 0.34967157
        tangentMode: 10
      - time: 0.21428572
        value: -0.36000097
        inSlope: 0
        outSlope: 0
        tangentMode: 10
      - time: 0.42857143
        value: -0.4349306
        inSlope: -0.17483579
        outSlope: -0
        tangentMode: 17
      - time: 0.85714287
        value: -0.4349306
        inSlope: 0
        outSlope: 0
        tangentMode: 5
      m_PreInfinity: 2
      m_PostInfinity: 2
      m_RotationOrder: 4
    attribute: m_LocalPosition.z
    path: 
    classID: 4
    script: {fileID: 0}
  - curve:
      serializedVersion: 2
      m_Curve:
      - time: 0
        value: 0
        inSlope: 0
        outSlope: 0
        tangentMode: 10
      - time: 0.21428572
        value: 0
        inSlope: 0
        outSlope: 0
        tangentMode: 10
      - time: 0.42857143
        value: 0
        inSlope: 0
        outSlope: -0
        tangentMode: 17
      - time: 0.85714287
        value: 0
        inSlope: 0
        outSlope: 0
        tangentMode: 5
      m_PreInfinity: 2
      m_PostInfinity: 2
      m_RotationOrder: 4
    attribute: localEulerAnglesRaw.x
    path: 
    classID: 4
    script: {fileID: 0}
  - curve:
      serializedVersion: 2
      m_Curve:
      - time: 0
        value: 0
        inSlope: 27.944002
        outSlope: 27.944002
        tangentMode: 10
      - time: 0.21428572
        value: 5.9880004
        inSlope: 0
        outSlope: 0
        tangentMode: 10
      - time: 0.42857143
        value: 0
        inSlope: -13.972001
        outSlope: -0
        tangentMode: 17
      - time: 0.85714287
        value: 0
        inSlope: 0
        outSlope: 0
        tangentMode: 5
      m_PreInfinity: 2
      m_PostInfinity: 2
      m_RotationOrder: 4
    attribute: localEulerAnglesRaw.y
    path: 
    classID: 4
    script: {fileID: 0}
  - curve:
      serializedVersion: 2
      m_Curve:
      - time: 0
        value: 0
        inSlope: 0
        outSlope: 0
        tangentMode: 10
      - time: 0.21428572
        value: 0
        inSlope: 0
        outSlope: 0
        tangentMode: 10
      - time: 0.42857143
        value: 0
        inSlope: 0
        outSlope: -0
        tangentMode: 17
      - time: 0.85714287
        value: 0
        inSlope: 0
        outSlope: 0
        tangentMode: 5
      m_PreInfinity: 2
      m_PostInfinity: 2
      m_RotationOrder: 4
    attribute: localEulerAnglesRaw.z
    path: 
    classID: 4
    script: {fileID: 0}
  m_EulerEditorCurves:
  - curve:
      serializedVersion: 2
      m_Curve: []
      m_PreInfinity: 2
      m_PostInfinity: 2
      m_RotationOrder: 4
    attribute: m_LocalEulerAngles.x
    path: 
    classID: 4
    script: {fileID: 0}
  - curve:
      serializedVersion: 2
      m_Curve: []
      m_PreInfinity: 2
      m_PostInfinity: 2
      m_RotationOrder: 4
    attribute: m_LocalEulerAngles.y
    path: 
    classID: 4
    script: {fileID: 0}
  - curve:
      serializedVersion: 2
      m_Curve: []
      m_PreInfinity: 2
      m_PostInfinity: 2
      m_RotationOrder: 4
    attribute: m_LocalEulerAngles.z
    path: 
    classID: 4
    script: {fileID: 0}
  m_HasGenericRootTransform: 1
  m_HasMotionFloatCurves: 0
  m_GenerateMotionCurves: 0
  m_Events: []
