%YAML 1.1
%TAG !u! tag:unity3d.com,2011:
--- !u!74 &7400000
AnimationClip:
  m_ObjectHideFlags: 0
  m_PrefabParentObject: {fileID: 0}
  m_PrefabInternal: {fileID: 0}
  m_Name: TRexHead
  serializedVersion: 6
  m_Legacy: 0
  m_Compressed: 0
  m_UseHighQualityCurve: 1
  m_RotationCurves: []
  m_CompressedRotationCurves: []
  m_EulerCurves:
  - curve:
      serializedVersion: 2
      m_Curve:
      - time: 0
        value: {x: -90, y: 0, z: 0}
        inSlope: {x: 16.471985, y: 0, z: 0}
        outSlope: {x: 16.471985, y: 0, z: 0}
        tangentMode: 0
      - time: 0.25
        value: {x: -85.882, y: 0, z: 0}
        inSlope: {x: 0, y: 0, z: 0}
        outSlope: {x: 0, y: 0, z: 0}
        tangentMode: 0
      - time: 0.5
        value: {x: -90, y: 0, z: 0}
        inSlope: {x: 0, y: 0, z: 0}
        outSlope: {x: 0, y: 0, z: 0}
        tangentMode: 0
      - time: 0.75
        value: {x: -85.882, y: 0, z: 0}
        inSlope: {x: 0, y: 0, z: 0}
        outSlope: {x: 0, y: 0, z: 0}
        tangentMode: 0
      - time: 1
        value: {x: -90, y: 0, z: 0}
        inSlope: {x: 0, y: 0, z: 0}
        outSlope: {x: 0, y: 0, z: 0}
        tangentMode: 0
      - time: 1.25
        value: {x: -85.882, y: 0, z: 0}
        inSlope: {x: 0, y: 0, z: 0}
        outSlope: {x: 0, y: 0, z: 0}
        tangentMode: 0
      - time: 1.5
        value: {x: -90, y: 0, z: 0}
        inSlope: {x: 0, y: 0, z: 0}
        outSlope: {x: 0, y: 0, z: 0}
        tangentMode: 0
      - time: 1.75
        value: {x: -85.882, y: 0, z: 0}
        inSlope: {x: 0, y: 0, z: 0}
        outSlope: {x: 0, y: 0, z: 0}
        tangentMode: 0
      - time: 2
        value: {x: -90, y: 0, z: 0}
        inSlope: {x: 0, y: 0, z: 0}
        outSlope: {x: 0, y: 0, z: 0}
        tangentMode: 0
      - time: 2.25
        value: {x: -85.882, y: 0, z: 0}
        inSlope: {x: 0, y: 0, z: 0}
        outSlope: {x: 0, y: 0, z: 0}
        tangentMode: 0
      - time: 2.5
        value: {x: -90, y: 0, z: 0}
        inSlope: {x: 0, y: 0, z: 0}
        outSlope: {x: 0, y: 0, z: 0}
        tangentMode: 0
      - time: 2.75
        value: {x: -85.882, y: 0, z: 0}
        inSlope: {x: 0, y: 0, z: 0}
        outSlope: {x: 0, y: 0, z: 0}
        tangentMode: 0
      - time: 3
        value: {x: -90, y: 0, z: 0}
        inSlope: {x: -25.723984, y: -0.000030517578, z: -15.143982}
        outSlope: {x: -25.723984, y: -0.000030517578, z: -15.143982}
        tangentMode: 0
      - time: 3.25
        value: {x: -98.743996, y: -0.000015258789, z: -7.571991}
        inSlope: {x: -45.724, y: -9.245972, z: -5.7440186}
        outSlope: {x: -45.724, y: -9.245972, z: -5.7440186}
        tangentMode: 0
      - time: 3.5
        value: {x: -112.862, y: -4.622986, z: -2.8720093}
        inSlope: {x: -28.278, y: -8.981964, z: 50.669952}
        outSlope: {x: -28.278, y: -8.981964, z: 50.669952}
        tangentMode: 0
      - time: 3.75
        value: {x: -112.882996, y: -4.4909973, z: 17.762985}
        inSlope: {x: 25.38357, y: 5.2539763, z: 21.53333}
        outSlope: {x: 25.38357, y: 5.2539763, z: 21.53333}
        tangentMode: 0
      - time: 4.2
        value: {x: -90, y: 0, z: 0}
        inSlope: {x: 50.851124, y: 9.979999, z: -39.473316}
        outSlope: {x: 50.851124, y: 9.979999, z: -39.473316}
        tangentMode: 0
      m_PreInfinity: 2
      m_PostInfinity: 2
      m_RotationOrder: 4
    path: 
  m_PositionCurves:
  - curve:
      serializedVersion: 2
      m_Curve:
      - time: 0
        value: {x: 0, y: 0.924, z: 0.322}
        inSlope: {x: 0, y: 0, z: 0}
        outSlope: {x: 0, y: 0, z: 0}
        tangentMode: 0
      - time: 0.25
        value: {x: 0, y: 0.924, z: 0.322}
        inSlope: {x: 0, y: 0, z: 0}
        outSlope: {x: 0, y: 0, z: 0}
        tangentMode: 0
      - time: 0.5
        value: {x: 0, y: 0.924, z: 0.322}
        inSlope: {x: 0, y: 0, z: 0}
        outSlope: {x: 0, y: 0, z: 0}
        tangentMode: 0
      - time: 0.75
        value: {x: 0, y: 0.924, z: 0.322}
        inSlope: {x: 0, y: 0, z: 0}
        outSlope: {x: 0, y: 0, z: 0}
        tangentMode: 0
      - time: 1
        value: {x: 0, y: 0.924, z: 0.322}
        inSlope: {x: 0, y: 0, z: 0}
        outSlope: {x: 0, y: 0, z: 0}
        tangentMode: 0
      - time: 1.25
        value: {x: 0, y: 0.924, z: 0.322}
        inSlope: {x: 0, y: 0, z: 0}
        outSlope: {x: 0, y: 0, z: 0}
        tangentMode: 0
      - time: 1.5
        value: {x: 0, y: 0.924, z: 0.322}
        inSlope: {x: 0, y: 0, z: 0}
        outSlope: {x: 0, y: 0, z: 0}
        tangentMode: 0
      - time: 1.75
        value: {x: 0, y: 0.924, z: 0.322}
        inSlope: {x: 0, y: 0, z: 0}
        outSlope: {x: 0, y: 0, z: 0}
        tangentMode: 0
      - time: 2
        value: {x: 0, y: 0.924, z: 0.322}
        inSlope: {x: 0, y: 0, z: 0}
        outSlope: {x: 0, y: 0, z: 0}
        tangentMode: 0
      - time: 2.1666667
        value: {x: 0, y: 0.924, z: 0.322}
        inSlope: {x: 0, y: 0, z: 0}
        outSlope: {x: 0, y: 0, z: 0}
        tangentMode: 0
      - time: 2.25
        value: {x: 0, y: 0.924, z: 0.322}
        inSlope: {x: 0, y: 0, z: 0}
        outSlope: {x: 0, y: 0, z: 0}
        tangentMode: 0
      - time: 2.3333333
        value: {x: 0, y: 0.924, z: 0.322}
        inSlope: {x: 0, y: 0, z: 0}
        outSlope: {x: 0, y: 0, z: 0}
        tangentMode: 0
      - time: 2.5
        value: {x: 0, y: 0.924, z: 0.322}
        inSlope: {x: 0, y: 0, z: 0}
        outSlope: {x: 0, y: 0, z: 0}
        tangentMode: 0
      - time: 2.75
        value: {x: 0, y: 0.924, z: 0.322}
        inSlope: {x: 0, y: 0, z: 0}
        outSlope: {x: 0, y: 0, z: 0}
        tangentMode: 0
      - time: 3
        value: {x: 0, y: 0.924, z: 0.322}
        inSlope: {x: -0.048, y: 0.11199999, z: 0}
        outSlope: {x: -0.048, y: 0.11199999, z: 0}
        tangentMode: 0
      - time: 3.25
        value: {x: -0.024, y: 0.98, z: 0.322}
        inSlope: {x: -0.04, y: 0.11199999, z: 0}
        outSlope: {x: -0.04, y: 0.11199999, z: 0}
        tangentMode: 0
      - time: 3.5
        value: {x: -0.02, y: 0.98, z: 0.322}
        inSlope: {x: 0.196, y: 0, z: 0}
        outSlope: {x: 0.196, y: 0, z: 0}
        tangentMode: 0
      - time: 3.75
        value: {x: 0.074, y: 0.98, z: 0.322}
        inSlope: {x: 0.10577773, y: -0.062222242, z: 0}
        outSlope: {x: 0.10577773, y: -0.062222242, z: 0}
        tangentMode: 0
      - time: 4.2
        value: {x: 0, y: 0.924, z: 0.322}
        inSlope: {x: -0.16444452, y: -0.124444485, z: 0}
        outSlope: {x: -0.16444452, y: -0.124444485, z: 0}
        tangentMode: 0
      m_PreInfinity: 2
      m_PostInfinity: 2
      m_RotationOrder: 4
    path: 
  m_ScaleCurves:
  - curve:
      serializedVersion: 2
      m_Curve:
      - time: 0
        value: {x: 1, y: 1, z: 1}
        inSlope: {x: 0, y: 0, z: 0}
        outSlope: {x: 0, y: 0, z: 0}
        tangentMode: 0
      - time: 2
        value: {x: 1, y: 1, z: 1}
        inSlope: {x: 0, y: 0, z: 0}
        outSlope: {x: 0, y: 0, z: -1.6576957}
        tangentMode: 0
      - time: 2.1666667
        value: {x: 1, y: 1, z: 0.17115219}
        inSlope: {x: 0, y: 0, z: 0.0000035762787}
        outSlope: {x: 0, y: 0, z: 0.0000035762787}
        tangentMode: 0
      - time: 2.3333333
        value: {x: 1, y: 1, z: 1}
        inSlope: {x: 0, y: 0, z: 4.9730916}
        outSlope: {x: 0, y: 0, z: 4.9730916}
        tangentMode: 0
      m_PreInfinity: 2
      m_PostInfinity: 2
      m_RotationOrder: 4
    path: Decals/Eyes
  m_FloatCurves:
  - curve:
      serializedVersion: 2
      m_Curve:
      - time: 0
        value: 1
        inSlope: Infinity
        outSlope: Infinity
        tangentMode: 31
      - time: 4.2
        value: 1
        inSlope: Infinity
        outSlope: Infinity
        tangentMode: 31
      m_PreInfinity: 2
      m_PostInfinity: 2
      m_RotationOrder: 4
    attribute: m_IsActive
    path: Decals/Eyes
    classID: 1
    script: {fileID: 0}
  m_PPtrCurves: []
  m_SampleRate: 60
  m_WrapMode: 0
  m_Bounds:
    m_Center: {x: 0, y: 0, z: 0}
    m_Extent: {x: 0, y: 0, z: 0}
  m_ClipBindingConstant:
    genericBindings:
    - path: 0
      attribute: 1
      script: {fileID: 0}
      classID: 4
      customType: 0
      isPPtrCurve: 0
    - path: 0
      attribute: 4
      script: {fileID: 0}
      classID: 4
      customType: 14
      isPPtrCurve: 0
    - path: 3878333550
      attribute: 3
      script: {fileID: 0}
      classID: 4
      customType: 0
      isPPtrCurve: 0
    - path: 3878333550
      attribute: 2086281974
      script: {fileID: 0}
      classID: 1
      customType: 0
      isPPtrCurve: 0
    pptrCurveMapping: []
  m_AnimationClipSettings:
    serializedVersion: 2
    m_AdditiveReferencePoseClip: {fileID: 0}
    m_AdditiveReferencePoseTime: 0
    m_StartTime: 0
    m_StopTime: 4.2
    m_OrientationOffsetY: 0
    m_Level: 0
    m_CycleOffset: 0
    m_HasAdditiveReferencePose: 0
    m_LoopTime: 1
    m_LoopBlend: 0
    m_LoopBlendOrientation: 0
    m_LoopBlendPositionY: 0
    m_LoopBlendPositionXZ: 0
    m_KeepOriginalOrientation: 0
    m_KeepOriginalPositionY: 1
    m_KeepOriginalPositionXZ: 0
    m_HeightFromFeet: 0
    m_Mirror: 0
  m_EditorCurves:
  - curve:
      serializedVersion: 2
      m_Curve:
      - time: 0
        value: 0
        inSlope: 0
        outSlope: 0
        tangentMode: 10
      - time: 0.25
        value: 0
        inSlope: 0
        outSlope: 0
        tangentMode: 10
      - time: 0.5
        value: 0
        inSlope: 0
        outSlope: 0
        tangentMode: 10
      - time: 0.75
        value: 0
        inSlope: 0
        outSlope: 0
        tangentMode: 10
      - time: 1
        value: 0
        inSlope: 0
        outSlope: 0
        tangentMode: 10
      - time: 1.25
        value: 0
        inSlope: 0
        outSlope: 0
        tangentMode: 10
      - time: 1.5
        value: 0
        inSlope: 0
        outSlope: 0
        tangentMode: 10
      - time: 1.75
        value: 0
        inSlope: 0
        outSlope: 0
        tangentMode: 10
      - time: 2
        value: 0
        inSlope: 0
        outSlope: 0
        tangentMode: 10
      - time: 2.1666667
        value: 0
        inSlope: 0
        outSlope: 0
        tangentMode: 10
      - time: 2.25
        value: 0
        inSlope: 0
        outSlope: 0
        tangentMode: 10
      - time: 2.3333333
        value: 0
        inSlope: 0
        outSlope: 0
        tangentMode: 10
      - time: 2.5
        value: 0
        inSlope: 0
        outSlope: 0
        tangentMode: 10
      - time: 2.75
        value: 0
        inSlope: 0
        outSlope: 0
        tangentMode: 10
      - time: 3
        value: 0
        inSlope: -0.048
        outSlope: -0.048
        tangentMode: 10
      - time: 3.25
        value: -0.024
        inSlope: -0.04
        outSlope: -0.04
        tangentMode: 10
      - time: 3.5
        value: -0.02
        inSlope: 0.196
        outSlope: 0.196
        tangentMode: 10
      - time: 3.75
        value: 0.074
        inSlope: 0.10577773
        outSlope: 0.10577773
        tangentMode: 10
      - time: 4.2
        value: 0
        inSlope: -0.16444452
        outSlope: -0.16444452
        tangentMode: 10
      m_PreInfinity: 2
      m_PostInfinity: 2
      m_RotationOrder: 4
    attribute: m_LocalPosition.x
    path: 
    classID: 4
    script: {fileID: 0}
  - curve:
      serializedVersion: 2
      m_Curve:
      - time: 0
        value: 0.924
        inSlope: 0
        outSlope: 0
        tangentMode: 10
      - time: 0.25
        value: 0.924
        inSlope: 0
        outSlope: 0
        tangentMode: 10
      - time: 0.5
        value: 0.924
        inSlope: 0
        outSlope: 0
        tangentMode: 10
      - time: 0.75
        value: 0.924
        inSlope: 0
        outSlope: 0
        tangentMode: 10
      - time: 1
        value: 0.924
        inSlope: 0
        outSlope: 0
        tangentMode: 10
      - time: 1.25
        value: 0.924
        inSlope: 0
        outSlope: 0
        tangentMode: 10
      - time: 1.5
        value: 0.924
        inSlope: 0
        outSlope: 0
        tangentMode: 10
      - time: 1.75
        value: 0.924
        inSlope: 0
        outSlope: 0
        tangentMode: 10
      - time: 2
        value: 0.924
        inSlope: 0
        outSlope: 0
        tangentMode: 10
      - time: 2.1666667
        value: 0.924
        inSlope: 0
        outSlope: 0
        tangentMode: 10
      - time: 2.25
        value: 0.924
        inSlope: 0
        outSlope: 0
        tangentMode: 10
      - time: 2.3333333
        value: 0.924
        inSlope: 0
        outSlope: 0
        tangentMode: 10
      - time: 2.5
        value: 0.924
        inSlope: 0
        outSlope: 0
        tangentMode: 10
      - time: 2.75
        value: 0.924
        inSlope: 0
        outSlope: 0
        tangentMode: 10
      - time: 3
        value: 0.924
        inSlope: 0.11199999
        outSlope: 0.11199999
        tangentMode: 10
      - time: 3.25
        value: 0.98
        inSlope: 0.11199999
        outSlope: 0.11199999
        tangentMode: 10
      - time: 3.5
        value: 0.98
        inSlope: 0
        outSlope: 0
        tangentMode: 10
      - time: 3.75
        value: 0.98
        inSlope: -0.062222242
        outSlope: -0.062222242
        tangentMode: 10
      - time: 4.2
        value: 0.924
        inSlope: -0.124444485
        outSlope: -0.124444485
        tangentMode: 10
      m_PreInfinity: 2
      m_PostInfinity: 2
      m_RotationOrder: 4
    attribute: m_LocalPosition.y
    path: 
    classID: 4
    script: {fileID: 0}
  - curve:
      serializedVersion: 2
      m_Curve:
      - time: 0
        value: 0.322
        inSlope: 0
        outSlope: 0
        tangentMode: 10
      - time: 0.25
        value: 0.322
        inSlope: 0
        outSlope: 0
        tangentMode: 10
      - time: 0.5
        value: 0.322
        inSlope: 0
        outSlope: 0
        tangentMode: 10
      - time: 0.75
        value: 0.322
        inSlope: 0
        outSlope: 0
        tangentMode: 10
      - time: 1
        value: 0.322
        inSlope: 0
        outSlope: 0
        tangentMode: 10
      - time: 1.25
        value: 0.322
        inSlope: 0
        outSlope: 0
        tangentMode: 10
      - time: 1.5
        value: 0.322
        inSlope: 0
        outSlope: 0
        tangentMode: 10
      - time: 1.75
        value: 0.322
        inSlope: 0
        outSlope: 0
        tangentMode: 10
      - time: 2
        value: 0.322
        inSlope: 0
        outSlope: 0
        tangentMode: 10
      - time: 2.1666667
        value: 0.322
        inSlope: 0
        outSlope: 0
        tangentMode: 10
      - time: 2.25
        value: 0.322
        inSlope: 0
        outSlope: 0
        tangentMode: 10
      - time: 2.3333333
        value: 0.322
        inSlope: 0
        outSlope: 0
        tangentMode: 10
      - time: 2.5
        value: 0.322
        inSlope: 0
        outSlope: 0
        tangentMode: 10
      - time: 2.75
        value: 0.322
        inSlope: 0
        outSlope: 0
        tangentMode: 10
      - time: 3
        value: 0.322
        inSlope: 0
        outSlope: 0
        tangentMode: 10
      - time: 3.25
        value: 0.322
        inSlope: 0
        outSlope: 0
        tangentMode: 10
      - time: 3.5
        value: 0.322
        inSlope: 0
        outSlope: 0
        tangentMode: 10
      - time: 3.75
        value: 0.322
        inSlope: 0
        outSlope: 0
        tangentMode: 10
      - time: 4.2
        value: 0.322
        inSlope: 0
        outSlope: 0
        tangentMode: 10
      m_PreInfinity: 2
      m_PostInfinity: 2
      m_RotationOrder: 4
    attribute: m_LocalPosition.z
    path: 
    classID: 4
    script: {fileID: 0}
  - curve:
      serializedVersion: 2
      m_Curve:
      - time: 0
        value: -90
        inSlope: 16.471985
        outSlope: 16.471985
        tangentMode: 10
      - time: 0.25
        value: -85.882
        inSlope: 0
        outSlope: 0
        tangentMode: 10
      - time: 0.5
        value: -90
        inSlope: 0
        outSlope: 0
        tangentMode: 10
      - time: 0.75
        value: -85.882
        inSlope: 0
        outSlope: 0
        tangentMode: 10
      - time: 1
        value: -90
        inSlope: 0
        outSlope: 0
        tangentMode: 10
      - time: 1.25
        value: -85.882
        inSlope: 0
        outSlope: 0
        tangentMode: 10
      - time: 1.5
        value: -90
        inSlope: 0
        outSlope: 0
        tangentMode: 10
      - time: 1.75
        value: -85.882
        inSlope: 0
        outSlope: 0
        tangentMode: 10
      - time: 2
        value: -90
        inSlope: 0
        outSlope: 0
        tangentMode: 10
      - time: 2.25
        value: -85.882
        inSlope: 0
        outSlope: 0
        tangentMode: 10
      - time: 2.5
        value: -90
        inSlope: 0
        outSlope: 0
        tangentMode: 10
      - time: 2.75
        value: -85.882
        inSlope: 0
        outSlope: 0
        tangentMode: 10
      - time: 3
        value: -90
        inSlope: -25.723984
        outSlope: -25.723984
        tangentMode: 10
      - time: 3.25
        value: -98.743996
        inSlope: -45.724
        outSlope: -45.724
        tangentMode: 10
      - time: 3.5
        value: -112.862
        inSlope: -28.278
        outSlope: -28.278
        tangentMode: 10
      - time: 3.75
        value: -112.882996
        inSlope: 25.38357
        outSlope: 25.38357
        tangentMode: 10
      - time: 4.2
        value: -90
        inSlope: 50.851124
        outSlope: 50.851124
        tangentMode: 10
      m_PreInfinity: 2
      m_PostInfinity: 2
      m_RotationOrder: 4
    attribute: localEulerAnglesRaw.x
    path: 
    classID: 4
    script: {fileID: 0}
  - curve:
      serializedVersion: 2
      m_Curve:
      - time: 0
        value: 0
        inSlope: 0
        outSlope: 0
        tangentMode: 10
      - time: 0.25
        value: 0
        inSlope: 0
        outSlope: 0
        tangentMode: 10
      - time: 0.5
        value: 0
        inSlope: 0
        outSlope: 0
        tangentMode: 10
      - time: 0.75
        value: 0
        inSlope: 0
        outSlope: 0
        tangentMode: 10
      - time: 1
        value: 0
        inSlope: 0
        outSlope: 0
        tangentMode: 10
      - time: 1.25
        value: 0
        inSlope: 0
        outSlope: 0
        tangentMode: 10
      - time: 1.5
        value: 0
        inSlope: 0
        outSlope: 0
        tangentMode: 10
      - time: 1.75
        value: 0
        inSlope: 0
        outSlope: 0
        tangentMode: 10
      - time: 2
        value: 0
        inSlope: 0
        outSlope: 0
        tangentMode: 10
      - time: 2.25
        value: 0
        inSlope: 0
        outSlope: 0
        tangentMode: 10
      - time: 2.5
        value: 0
        inSlope: 0
        outSlope: 0
        tangentMode: 10
      - time: 2.75
        value: 0
        inSlope: 0
        outSlope: 0
        tangentMode: 10
      - time: 3
        value: 0
        inSlope: -0.000030517578
        outSlope: -0.000030517578
        tangentMode: 10
      - time: 3.25
        value: -0.000015258789
        inSlope: -9.245972
        outSlope: -9.245972
        tangentMode: 10
      - time: 3.5
        value: -4.622986
        inSlope: -8.981964
        outSlope: -8.981964
        tangentMode: 10
      - time: 3.75
        value: -4.4909973
        inSlope: 5.2539763
        outSlope: 5.2539763
        tangentMode: 10
      - time: 4.2
        value: 0
        inSlope: 9.979999
        outSlope: 9.979999
        tangentMode: 10
      m_PreInfinity: 2
      m_PostInfinity: 2
      m_RotationOrder: 4
    attribute: localEulerAnglesRaw.y
    path: 
    classID: 4
    script: {fileID: 0}
  - curve:
      serializedVersion: 2
      m_Curve:
      - time: 0
        value: 0
        inSlope: 0
        outSlope: 0
        tangentMode: 10
      - time: 0.25
        value: 0
        inSlope: 0
        outSlope: 0
        tangentMode: 10
      - time: 0.5
        value: 0
        inSlope: 0
        outSlope: 0
        tangentMode: 10
      - time: 0.75
        value: 0
        inSlope: 0
        outSlope: 0
        tangentMode: 10
      - time: 1
        value: 0
        inSlope: 0
        outSlope: 0
        tangentMode: 10
      - time: 1.25
        value: 0
        inSlope: 0
        outSlope: 0
        tangentMode: 10
      - time: 1.5
        value: 0
        inSlope: 0
        outSlope: 0
        tangentMode: 10
      - time: 1.75
        value: 0
        inSlope: 0
        outSlope: 0
        tangentMode: 10
      - time: 2
        value: 0
        inSlope: 0
        outSlope: 0
        tangentMode: 10
      - time: 2.25
        value: 0
        inSlope: 0
        outSlope: 0
        tangentMode: 10
      - time: 2.5
        value: 0
        inSlope: 0
        outSlope: 0
        tangentMode: 10
      - time: 2.75
        value: 0
        inSlope: 0
        outSlope: 0
        tangentMode: 10
      - time: 3
        value: 0
        inSlope: -15.143982
        outSlope: -15.143982
        tangentMode: 10
      - time: 3.25
        value: -7.571991
        inSlope: -5.7440186
        outSlope: -5.7440186
        tangentMode: 10
      - time: 3.5
        value: -2.8720093
        inSlope: 50.669952
        outSlope: 50.669952
        tangentMode: 10
      - time: 3.75
        value: 17.762985
        inSlope: 21.53333
        outSlope: 21.53333
        tangentMode: 10
      - time: 4.2
        value: 0
        inSlope: -39.473316
        outSlope: -39.473316
        tangentMode: 10
      m_PreInfinity: 2
      m_PostInfinity: 2
      m_RotationOrder: 4
    attribute: localEulerAnglesRaw.z
    path: 
    classID: 4
    script: {fileID: 0}
  - curve:
      serializedVersion: 2
      m_Curve:
      - time: 0
        value: 1
        inSlope: Infinity
        outSlope: Infinity
        tangentMode: 31
      - time: 4.2
        value: 1
        inSlope: Infinity
        outSlope: Infinity
        tangentMode: 31
      m_PreInfinity: 2
      m_PostInfinity: 2
      m_RotationOrder: 4
    attribute: m_IsActive
    path: Decals/Eyes
    classID: 1
    script: {fileID: 0}
  - curve:
      serializedVersion: 2
      m_Curve:
      - time: 0
        value: 1
        inSlope: 0
        outSlope: 0
        tangentMode: 10
      - time: 2
        value: 1
        inSlope: 0
        outSlope: 0
        tangentMode: 5
      - time: 2.1666667
        value: 1
        inSlope: 0
        outSlope: 0
        tangentMode: 10
      - time: 2.3333333
        value: 1
        inSlope: 0
        outSlope: 0
        tangentMode: 10
      m_PreInfinity: 2
      m_PostInfinity: 2
      m_RotationOrder: 4
    attribute: m_LocalScale.x
    path: Decals/Eyes
    classID: 4
    script: {fileID: 0}
  - curve:
      serializedVersion: 2
      m_Curve:
      - time: 0
        value: 1
        inSlope: 0
        outSlope: 0
        tangentMode: 10
      - time: 2
        value: 1
        inSlope: 0
        outSlope: 0
        tangentMode: 5
      - time: 2.1666667
        value: 1
        inSlope: 0
        outSlope: 0
        tangentMode: 10
      - time: 2.3333333
        value: 1
        inSlope: 0
        outSlope: 0
        tangentMode: 10
      m_PreInfinity: 2
      m_PostInfinity: 2
      m_RotationOrder: 4
    attribute: m_LocalScale.y
    path: Decals/Eyes
    classID: 4
    script: {fileID: 0}
  - curve:
      serializedVersion: 2
      m_Curve:
      - time: 0
        value: 1
        inSlope: 0
        outSlope: 0
        tangentMode: 10
      - time: 2
        value: 1
        inSlope: 0
        outSlope: -1.6576957
        tangentMode: 5
      - time: 2.1666667
        value: 0.17115219
        inSlope: 0.0000035762787
        outSlope: 0.0000035762787
        tangentMode: 10
      - time: 2.3333333
        value: 1
        inSlope: 4.9730916
        outSlope: 4.9730916
        tangentMode: 10
      m_PreInfinity: 2
      m_PostInfinity: 2
      m_RotationOrder: 4
    attribute: m_LocalScale.z
    path: Decals/Eyes
    classID: 4
    script: {fileID: 0}
  m_EulerEditorCurves:
  - curve:
      serializedVersion: 2
      m_Curve: []
      m_PreInfinity: 2
      m_PostInfinity: 2
      m_RotationOrder: 4
    attribute: m_LocalEulerAngles.x
    path: 
    classID: 4
    script: {fileID: 0}
  - curve:
      serializedVersion: 2
      m_Curve: []
      m_PreInfinity: 2
      m_PostInfinity: 2
      m_RotationOrder: 4
    attribute: m_LocalEulerAngles.y
    path: 
    classID: 4
    script: {fileID: 0}
  - curve:
      serializedVersion: 2
      m_Curve: []
      m_PreInfinity: 2
      m_PostInfinity: 2
      m_RotationOrder: 4
    attribute: m_LocalEulerAngles.z
    path: 
    classID: 4
    script: {fileID: 0}
  m_HasGenericRootTransform: 1
  m_HasMotionFloatCurves: 0
  m_GenerateMotionCurves: 0
  m_Events: []
