%YAML 1.1
%TAG !u! tag:unity3d.com,2011:
--- !u!1001 &100100000
Prefab:
  m_ObjectHideFlags: 1
  serializedVersion: 2
  m_Modification:
    m_TransformParent: {fileID: 0}
    m_Modifications: []
    m_RemovedComponents: []
  m_ParentPrefab: {fileID: 0}
  m_RootGameObject: {fileID: 1000010310471650}
  m_IsPrefabParent: 1
--- !u!1 &1000010310471650
GameObject:
  m_ObjectHideFlags: 0
  m_PrefabParentObject: {fileID: 0}
  m_PrefabInternal: {fileID: 100100000}
  serializedVersion: 4
  m_Component:
  - 4: {fileID: 4000012452763446}
  - 114: {fileID: 114000010815069050}
  m_Layer: 0
  m_Name: GeneralSky
  m_TagString: Untagged
  m_Icon: {fileID: 0}
  m_NavMeshLayer: 0
  m_StaticEditorFlags: 0
  m_IsActive: 1
--- !u!4 &4000012452763446
Transform:
  m_ObjectHideFlags: 1
  m_PrefabParentObject: {fileID: 0}
  m_PrefabInternal: {fileID: 100100000}
  m_GameObject: {fileID: 1000010310471650}
  m_LocalRotation: {x: -0, y: -0, z: -0, w: 1}
  m_LocalPosition: {x: 158.61003, y: 64.00342, z: 305.56937}
  m_LocalScale: {x: 1, y: 1, z: 1}
  m_LocalEulerAnglesHint: {x: 0, y: 0, z: 0}
  m_Children: []
  m_Father: {fileID: 0}
  m_RootOrder: 0
--- !u!114 &114000010815069050
MonoBehaviour:
  m_ObjectHideFlags: 1
  m_PrefabParentObject: {fileID: 0}
  m_PrefabInternal: {fileID: 100100000}
  m_GameObject: {fileID: 1000010310471650}
  m_Enabled: 1
  m_EditorHideFlags: 0
  m_Script: {fileID: 11500000, guid: 0b8dcb8fd9dcab8428f6363b292d900a, type: 3}
  m_Name: 
  m_EditorClassIdentifier: 
  sceneProps:
  - {fileID: 1000013150363326, guid: a9f1e809fc0a93c4eae5e1c3e4b00a49, type: 2}
  - {fileID: 1000012804301878, guid: 987d58709f274954893dd0a66bc616bc, type: 2}
  - {fileID: 1000012735273106, guid: 94e4f17c3b939de408a554fc8c6bda0c, type: 2}
  - {fileID: 1000013543933112, guid: 06de9ed67e19dd24daf77a5f29e8d75b, type: 2}
  spawnPoints: []
  tf: {fileID: 0}
  spawnedProp: {fileID: 0}
  stat: {fileID: 0}
